{
  "directory": "./IconLibrary/",
  "targetdir": "../Libraries/",
  "targetlibrary": "Service Icons",
  "library": [
    {
      "name": "Blank",
      "type": "Icon",
      "url": "",
      "svg": "templates/Blank_template.svg",
      "file": "Darkgray_blank.svg",
      "color": "darkgray"
    },
    {
      "name": "Web Service",
      "type": "Icon",
      "url": "https://pnt.redhat.com/pnt/d-15475945/IconRedHatWebsiteAWhiteRGB.svg",
      "svg": "Icon-Red_Hat-Website-A-White-RGB.svg",
      "file": "Web_service.svg",
      "color": "darkgray"
    },
    {
      "name": "Service Catalog",
      "type": "Icon",
      "url": "https://pnt.redhat.com/pnt/d-14325115/IconRedHatSof...AWhiteRGB.svg",
      "svg": "Icon-Red_Hat-Software_and_technologies-Catalog-A-White-RGB.svg",
      "file": "Service_catalog.svg",
      "color": "darkgray"
    },
    {
      "name": "Developer IDE",
      "type": "Icon",
      "url": "https://pnt.redhat.com/pnt/d-14285305/IconRedHatPeo...AWhiteRGB.svg",
      "svg": "Icon-Red_Hat-People_and_audiences-Developer-A-White-RGB.svg",
      "file": "Developer_ide.svg",
      "color": "darkgray"
    },
    {
      "name": "Source Code Management",
      "type": "Icon",
      "url": "https://pnt.redhat.com/pnt/p-14301965/Icon-Red_Hat-...White-RGB.svg",
      "svg": "Icon-Red_Hat-People_and_audiences-Operations-A-White-RGB.svg",
      "file": "Source_code_management.svg",
      "color": "darkgray"
    },
    {
      "name": "Automated Testing",
      "type": "Icon",
      "url": "https://pnt.redhat.com/pnt/d-13379705/IconRedHatObj...AWhiteRGB.svg",
      "svg": "Icon-Red_Hat-Clipboard_Checklist-A-White-RGB.svg",
      "file": "Automated_testing.svg",
      "color": "darkgray"
    },
    {
      "name": "Container Registry",
      "type": "Icon",
      "url": "https://pnt.redhat.com/pnt/d-16340285/IconRedHatCon...AWhiteRGB.svg",
      "svg": "Icon-Red_Hat-Container_Registry-A-White-RGB.svg",
      "file": "Container_registry.svg",
      "color": "darkgray"
    },
    {
      "name": "Scanning Tool",
      "type": "Icon",
      "url": "https://pnt.redhat.com/pnt/d-13366965/IconRedHatObj...AWhiteRGB.svg",
      "svg": "Icon-Red_Hat-Objects-Magnifying_Glass-A-White-RGB.svg",
      "file": "Scanning_tool.svg",
      "color": "darkgray"
    },
    {
      "name": "Directory",
      "type": "Icon",
      "url": "https://pnt.redhat.com/pnt/d-16353465/IconRedHatGro...AWhiteRGB.svg",
      "svg": "Icon-Red_Hat-Grooming-A-White-RGB.svg",
      "file": "Directory.svg",
      "color": "darkgray"
    },
    {
      "name": "Identity",
      "type": "Icon",
      "url": "https://pnt.redhat.com/pnt/p-18078115/Icon-Red_Hat-...White-RGB.svg",
      "svg": "Icon-Red_Hat-Single_sign_on-A-White-RGB.svg",
      "file": "Identity.svg",
      "color": "darkgray"
    },
    {
      "name": "Secrets Management",
      "type": "Icon",
      "url": "https://drive.google.com/drive/folders/1Egp5Kolbww-keqB21KOdscbD_9Ie0FVw",
      "svg": "Icon-Red_Hat-Bank_safe-A-White-RGB.svg",
      "file": "Secrets.svg",
      "color": "darkgray"
    },
    {
      "name": "Logging",
      "type": "Icon",
      "url": "https://pnt.redhat.com/pnt/d-15515085/IconRedHatBookAWhiteRGB.svg",
      "svg": "Icon-Red_Hat-Book-A-White-RGB.svg",
      "file": "Logging.svg",
      "color": "darkgray"
    },
    {
      "name": "Monitoring and Management",
      "type": "Icon",
      "url": "https://pnt.redhat.com/pnt/p-15494145/Icon-Red_Hat-...White-RGB.svg",
      "svg": "Icon-Red_Hat-IT_Optimization-A-White-RGB.svg",
      "file": "Monitoring_management.svg",
      "color": "darkgray"
    },
    {
      "name": "Load Balancer",
      "type": "Icon",
      "url": "https://pnt.redhat.com/pnt/d-14166925/IconRedHatHar...AWhiteRGB.svg",
      "svg": "Icon-Red_Hat-Hardware-Router_Load_Balancer-A-White-RGB.svg",
      "file": "Load_balancer.svg",
      "color": "darkgray"
    },
    {
      "name": "Router",
      "type": "Icon",
      "url": "https://pnt.redhat.com/pnt/d-14355555/IconRedHatSof...AWhiteRGB.svg",
      "svg": "Icon-Red_Hat-Software_and_technologies-Gateway-A-White-RGB.svg",
      "file": "Router.svg",
      "color": "darkgray"
    },
    {
      "name": "Firewall",
      "type": "Icon",
      "url": "https://drive.google.com/file/d/1P1WE6PqrRfdVcj5hiWqzdZDf6cjLgTwT/view?usp=sharing",
      "svg": "Icon-Red_Hat-Firewall_A-White-RGB.svg",
      "file": "Firewall.svg",
      "color": "darkgray"
    },
    {
      "name": "Name Service",
      "type": "Icon",
      "url": "https://pnt.redhat.com/pnt/d-15462735/IconRedHatClo...AWhiteRGB.svg",
      "svg": "Icon-Red_Hat-Cloud_inspect-A-White-RGB.svg",
      "file": "Name_service.svg",
      "color": "darkgray"
    },
    {
      "name": "Network Time Protocol",
      "type": "Icon",
      "url": "https://pnt.redhat.com/pnt/d-13382005/IconRedHatObj...AWhiteRGB.svg",
      "svg": "Icon-Red_Hat-Objects-Clock-A-White-RGB.svg",
      "file": "Network_time_protocol.svg",
      "color": "darkgray"
    },
    {
      "name": "Database",
      "type": "Icon",
      "url": "https://pnt.redhat.com/pnt/p-14170585/Icon-Red_Hat-...White-RGB.svg",
      "svg": "Icon-Red_Hat-Hardware-Storage-A-White-RGB.svg",
      "file": "Database.svg",
      "color": "darkgray"
    },
    {
      "name": "Data Lake",
      "type": "Icon",
      "url": "https://pnt.redhat.com/pnt/d-14176685/IconRedHatHar...AWhiteRGB.svg",
      "svg": "Icon-Red_Hat-Hardware-Storage_Stack-A-White-RGB.svg",
      "file": "Data_lake.svg",
      "color": "darkgray"
    }
  ]
}
